2018-03-23 13:45:05.1186 TemporaryExpoints Job is Started  

2018-03-23 13:45:05.1186 Leaders Job is Started  

2018-03-23 13:45:06.0543 TemporaryExpoints Job Finished  

2018-03-23 15:07:56.7478 Leaders Job is Started  

2018-03-23 15:07:56.7478 TemporaryExpoints Job is Started  

2018-03-23 15:07:59.0546 TemporaryExpoints Job Finished  

