2018-03-30 12:40:46.9899 TemporaryExpoints Job is Started  

2018-03-30 12:40:46.9899 Leaders Job is Started  

2018-03-30 12:40:48.1908 TemporaryExpoints Job Finished  

2018-03-30 13:12:58.9399 TemporaryExpoints Job is Started  

2018-03-30 13:12:58.9399 Leaders Job is Started  

2018-03-30 13:13:00.1302 TemporaryExpoints Job Finished  

2018-03-30 13:21:52.9340 TemporaryExpoints Job is Started  

2018-03-30 13:21:52.9340 Leaders Job is Started  

2018-03-30 13:22:06.2131 TemporaryExpoints Job Finished  

2018-03-30 14:13:49.0707 Leaders Job is Started  

2018-03-30 14:13:49.0707 TemporaryExpoints Job is Started  

2018-03-30 14:13:50.2587 TemporaryExpoints Job Finished  

2018-03-30 14:18:09.2443 TemporaryExpoints Job is Started  

2018-03-30 14:18:09.2443 Leaders Job is Started  

2018-03-30 14:18:10.8061 TemporaryExpoints Job Finished  

2018-03-30 14:21:18.0303 TemporaryExpoints Job is Started  

2018-03-30 14:21:18.0303 Leaders Job is Started  

2018-03-30 14:21:18.9830 TemporaryExpoints Job Finished  

2018-03-30 15:51:03.9795 Leaders Job is Started  

2018-03-30 15:51:03.9795 TemporaryExpoints Job is Started  

2018-03-30 15:51:05.0949 TemporaryExpoints Job Finished  

2018-03-30 16:01:34.8956 TemporaryExpoints Job is Started  

2018-03-30 16:01:34.8956 Leaders Job is Started  

2018-03-30 16:01:35.8129 TemporaryExpoints Job Finished  

2018-03-30 17:18:11.8662 TemporaryExpoints Job is Started  

2018-03-30 17:18:11.8837 Leaders Job is Started  

2018-03-30 17:33:42.3348 Leaders Job is Started  

2018-03-30 17:33:42.3493 TemporaryExpoints Job is Started  

2018-03-30 17:36:45.4765 Leaders Job is Started  

2018-03-30 17:36:45.4765 TemporaryExpoints Job is Started  

2018-03-30 17:36:52.1228 TemporaryExpoints Job Finished  

2018-03-30 17:51:05.2560 Leaders Job is Started  

2018-03-30 17:51:05.2560 TemporaryExpoints Job is Started  

2018-03-30 17:51:09.7498 TemporaryExpoints Job Finished  

2018-03-30 18:01:11.3361 Leaders Job is Started  

2018-03-30 18:01:11.3361 TemporaryExpoints Job is Started  

2018-03-30 18:01:16.8581 TemporaryExpoints Job Finished  

2018-03-30 18:31:59.4798 TemporaryExpoints Job is Started  

2018-03-30 18:31:59.4798 Leaders Job is Started  

2018-03-30 18:32:05.0069 TemporaryExpoints Job Finished  

2018-03-30 18:37:01.7396 TemporaryExpoints Job is Started  

2018-03-30 18:37:01.7396 Leaders Job is Started  

2018-03-30 18:37:05.3649 TemporaryExpoints Job Finished  

2018-03-30 18:47:44.5826 Leaders Job is Started  

2018-03-30 18:47:44.5826 TemporaryExpoints Job is Started  

2018-03-30 18:47:47.9348 TemporaryExpoints Job Finished  

2018-03-30 18:53:56.6827 TemporaryExpoints Job is Started  

2018-03-30 18:53:56.6827 Leaders Job is Started  

2018-03-30 18:54:01.9069 TemporaryExpoints Job Finished  

2018-03-30 19:00:00.1007 Leaders Job is Started  

2018-03-30 19:00:00.1007 TemporaryExpoints Job is Started  

2018-03-30 19:00:03.9912 TemporaryExpoints Job Finished  

2018-03-30 19:17:14.5761 Leaders Job is Started  

2018-03-30 19:17:14.5761 TemporaryExpoints Job is Started  

2018-03-30 19:17:19.4405 TemporaryExpoints Job Finished  

2018-03-30 19:25:41.7605 Leaders Job is Started  

2018-03-30 19:25:41.7605 TemporaryExpoints Job is Started  

2018-03-30 19:25:44.5432 TemporaryExpoints Job Finished  

2018-03-30 19:55:10.6329 Leaders Job is Started  

2018-03-30 19:55:10.6329 TemporaryExpoints Job is Started  

2018-03-30 19:55:14.1818 TemporaryExpoints Job Finished  

