2017-09-14 20:57:05.8294 Leaders Job is Started  

2017-09-14 21:55:34.6794 Leaders Job is Started  

2017-09-14 22:16:40.9992 Leaders Job is Started  

2017-09-14 22:21:53.2629 Leaders Job is Started  

2017-09-14 22:42:39.0132 Leaders Job is Started  

2017-09-14 22:45:59.3325 Leaders Job is Started  

