2017-09-29 21:51:36.8064 Leaders Job is Started  

2017-09-29 22:51:15.3804 Leaders Job is Started  

2017-09-29 23:02:16.4111 Leaders Job is Started  

2017-09-29 23:05:51.6852 Leaders Job is Started  

2017-09-29 23:16:50.3454 Leaders Job is Started  

2017-09-29 23:17:23.9396 Leaders Job is Started  

2017-09-29 23:18:35.3219 Leaders Job is Started  

2017-09-29 23:56:07.0529 Leaders Job is Started  

