2018-04-01 12:59:31.5812 Leaders Job is Started  

2018-04-01 12:59:31.5832 TemporaryExpoints Job is Started  

2018-04-01 12:59:33.1323 TemporaryExpoints Job Finished  

2018-04-01 13:08:50.6239 Leaders Job is Started  

2018-04-01 13:08:50.6239 TemporaryExpoints Job is Started  

2018-04-01 13:08:52.0804 TemporaryExpoints Job Finished  

2018-04-01 13:26:14.4485 TemporaryExpoints Job is Started  

2018-04-01 13:26:14.4485 Leaders Job is Started  

2018-04-01 13:26:24.8843 TemporaryExpoints Job Finished  

2018-04-01 13:42:34.7234 TemporaryExpoints Job is Started  

2018-04-01 13:42:34.7234 Leaders Job is Started  

2018-04-01 13:42:36.1689 TemporaryExpoints Job Finished  

2018-04-01 13:49:32.9762 TemporaryExpoints Job is Started  

2018-04-01 13:49:32.9762 Leaders Job is Started  

2018-04-01 13:49:34.9373 TemporaryExpoints Job Finished  

2018-04-01 13:54:20.5306 Leaders Job is Started  

2018-04-01 13:54:20.5306 TemporaryExpoints Job is Started  

2018-04-01 13:54:22.0752 TemporaryExpoints Job Finished  

2018-04-01 14:01:52.3901 Leaders Job is Started  

2018-04-01 14:01:52.3901 TemporaryExpoints Job is Started  

2018-04-01 14:01:55.9780 TemporaryExpoints Job Finished  

2018-04-01 14:05:11.0925 Leaders Job is Started  

2018-04-01 14:05:11.1075 TemporaryExpoints Job is Started  

2018-04-01 14:05:13.6430 TemporaryExpoints Job Finished  

2018-04-01 14:11:10.5552 Leaders Job is Started  

2018-04-01 14:11:10.5552 TemporaryExpoints Job is Started  

2018-04-01 14:13:14.4853 Leaders Job is Started  

2018-04-01 14:13:14.4853 TemporaryExpoints Job is Started  

2018-04-01 14:13:16.1950 TemporaryExpoints Job Finished  

2018-04-01 14:21:56.2105 TemporaryExpoints Job is Started  

2018-04-01 14:21:56.2045 Leaders Job is Started  

2018-04-01 14:21:57.8601 TemporaryExpoints Job Finished  

2018-04-01 14:46:43.6553 TemporaryExpoints Job is Started  

2018-04-01 14:46:43.6553 Leaders Job is Started  

2018-04-01 14:46:44.8521 TemporaryExpoints Job Finished  

