2018-03-28 14:10:00.1470 Leaders Job is Started  

2018-03-28 14:10:00.1470 TemporaryExpoints Job is Started  

2018-03-28 14:10:07.4440 TemporaryExpoints Job Finished  

2018-03-28 14:12:38.2434 Leaders Job is Started  

2018-03-28 14:12:38.2434 TemporaryExpoints Job is Started  

2018-03-28 14:12:45.2317 TemporaryExpoints Job Finished  

2018-03-28 14:28:44.8127 TemporaryExpoints Job is Started  

2018-03-28 14:28:44.8127 Leaders Job is Started  

2018-03-28 14:28:51.2781 TemporaryExpoints Job Finished  

2018-03-28 14:55:57.0189 Leaders Job is Started  

2018-03-28 14:55:57.0290 TemporaryExpoints Job is Started  

2018-03-28 14:56:02.4298 TemporaryExpoints Job Finished  

2018-03-28 15:14:31.1451 Leaders Job is Started  

2018-03-28 15:14:31.1801 TemporaryExpoints Job is Started  

2018-03-28 15:25:51.3297 TemporaryExpoints Job is Started  

2018-03-28 15:25:51.3297 Leaders Job is Started  

2018-03-28 15:25:56.5294 TemporaryExpoints Job Finished  

2018-03-28 15:48:56.5693 Leaders Job is Started  

2018-03-28 15:48:56.5693 TemporaryExpoints Job is Started  

2018-03-28 15:49:01.3482 TemporaryExpoints Job Finished  

2018-03-28 15:54:37.3772 Leaders Job is Started  

2018-03-28 15:54:37.3772 TemporaryExpoints Job is Started  

2018-03-28 15:54:42.6371 TemporaryExpoints Job Finished  

2018-03-28 16:00:01.4437 TemporaryExpoints Job is Started  

2018-03-28 16:00:01.4687 Leaders Job is Started  

2018-03-28 16:05:23.2692 Leaders Job is Started  

2018-03-28 16:05:23.2692 TemporaryExpoints Job is Started  

2018-03-28 16:05:46.1989 TemporaryExpoints Job Finished  

2018-03-28 16:11:53.0266 TemporaryExpoints Job is Started  

2018-03-28 16:11:53.0266 Leaders Job is Started  

2018-03-28 16:11:57.1601 TemporaryExpoints Job Finished  

2018-03-28 16:19:44.7688 TemporaryExpoints Job is Started  

2018-03-28 16:19:44.7688 Leaders Job is Started  

2018-03-28 16:19:51.3920 TemporaryExpoints Job Finished  

2018-03-28 16:24:29.7582 TemporaryExpoints Job is Started  

2018-03-28 16:24:29.8378 Leaders Job is Started  

2018-03-28 16:24:47.8506 TemporaryExpoints Job Finished  

2018-03-28 16:31:12.1508 TemporaryExpoints Job is Started  

2018-03-28 16:31:12.1543 Leaders Job is Started  

2018-03-28 16:31:19.7088 TemporaryExpoints Job Finished  

2018-03-28 16:56:40.8898 Leaders Job is Started  

2018-03-28 16:56:40.8898 TemporaryExpoints Job is Started  

2018-03-28 16:56:47.1808 TemporaryExpoints Job Finished  

2018-03-28 17:01:31.1172 Leaders Job is Started  

2018-03-28 17:01:31.1172 TemporaryExpoints Job is Started  

2018-03-28 17:01:39.7954 TemporaryExpoints Job Finished  

2018-03-28 17:08:29.0378 TemporaryExpoints Job is Started  

2018-03-28 17:08:29.0854 Leaders Job is Started  

2018-03-28 17:08:41.6952 TemporaryExpoints Job Finished  

2018-03-28 17:14:31.5520 Leaders Job is Started  

2018-03-28 17:14:31.5666 TemporaryExpoints Job is Started  

2018-03-28 17:14:37.0665 TemporaryExpoints Job Finished  

2018-03-28 17:20:01.0984 Leaders Job is Started  

2018-03-28 17:20:01.1154 TemporaryExpoints Job is Started  

2018-03-28 17:20:08.5762 TemporaryExpoints Job Finished  

2018-03-28 17:33:15.0637 Leaders Job is Started  

2018-03-28 17:33:15.0637 TemporaryExpoints Job is Started  

2018-03-28 17:33:22.1202 TemporaryExpoints Job Finished  

2018-03-28 17:39:09.1264 Leaders Job is Started  

2018-03-28 17:39:09.1264 TemporaryExpoints Job is Started  

2018-03-28 17:39:13.5761 TemporaryExpoints Job Finished  

