2017-09-27 20:44:35.1066 Leaders Job is Started  

2017-09-27 20:56:24.5917 Leaders Job is Started  

2017-09-27 21:02:05.5152 Leaders Job is Started  

2017-09-27 21:11:09.1676 Leaders Job is Started  

2017-09-27 21:12:33.9036 Leaders Job is Started  

2017-09-27 21:16:28.4090 Leaders Job is Started  

2017-09-27 21:17:58.2841 Leaders Job is Started  

2017-09-27 21:24:08.6015 Leaders Job is Started  

2017-09-27 21:25:18.4667 Leaders Job is Started  

2017-09-27 21:26:40.5676 Leaders Job is Started  

2017-09-27 21:40:13.7922 Leaders Job is Started  

2017-09-27 21:49:59.4677 Leaders Job is Started  

2017-09-27 22:17:53.2454 Leaders Job is Started  

2017-09-27 22:24:41.3381 Leaders Job is Started  

2017-09-27 22:27:13.1650 Leaders Job is Started  

2017-09-27 22:31:39.5373 Leaders Job is Started  

2017-09-27 22:33:55.5313 Leaders Job is Started  

2017-09-27 22:37:27.9490 Leaders Job is Started  

